…
  
</table>
</div>
```

```r
# number of phyla and reads per phyla
datafullphylum %>% filter(Project=="Loperamide")  %>% group_by(name) %>% 
   filter(value>0) %>% 
   summarise(sumPhyla = sum(value, na.rm=TRUE),
             meanPhyla = mean(value, na.rm=TRUE))
```

```
## # A tibble: 38 × 3
##    name                          sumPhyla meanPhyla
##    <chr>                            <dbl>     <dbl>
##  1 d__Bacteria; Acidobacteriota      2862     65.0 
##  2 d__Bacteria; Actinobacteriota    64839   1441.  
##  3 d__Bacteria; Aquificota              2      2   
##  4 d__Bacteria; Armatimonadota         37      4.11
##  5 d__Bacteria; Bacteroidota       209990   4666.  
##  6 d__Bacteria; Bdellovibrionota     6484    154.  
##  7 d__Bacteria; Campilobacterota      249      8.59
##  8 d__Bacteria; Chloroflexi           675     17.8 
##  9 d__Bacteria; Cloacimonadota          8      8   
## 10 d__Bacteria; Deferribacterota       13      4.33
## # … with 28 more rows
```
…
# stats
compare_means(data=braycurtisdistances, value~LoperamideTimepoint, method="wilcox", p.adjust.method = "BH")
```

```
## # A tibble: 36 × 8
##    .y.   group1          group2                p  p.adj p.format p.signif method
##    <chr> <chr>           <chr>             <dbl>  <dbl> <chr>    <chr>    <chr> 
##  1 value ControlWater.T0 ControlWater.T1 2.54e-3 4.6e-3 0.00254  **       Wilco…
##  2 value ControlWater.T0 ControlWater.T5 1.57e-5 4.3e-5 1.6e-05  ****     Wilco…
##  3 value ControlWater.T0 DMSO.T0         7.56e-1 8.5e-1 0.75552  ns       Wilco…
##  4 value ControlWater.T0 DMSO.T1         2.85e-1 3.5e-1 0.28485  ns       Wilco…
##  5 value ControlWater.T0 DMSO.T5         8.39e-1 8.9e-1 0.83908  ns       Wilco…
##  6 value ControlWater.T0 Loperamide.T0   5.56e-4 1.1e-3 0.00056  ***      Wilco…
##  7 value ControlWater.T0 Loperamide.T1   1.32e-2 2.1e-2 0.01323  *        Wilco…
##  8 value ControlWater.T0 Loperamide.T5   4.57e-1 5.3e-1 0.45653  ns       Wilco…
##  9 value ControlWater.T1 ControlWater.T5 3.70e-4 7.8e-4 0.00037  ***      Wilco…
## 10 value ControlWater.T1 DMSO.T0         5.76e-6 1.9e-5 5.8e-06  ****     Wilco…
## # … with 26 more rows
```
…
